{
  "collapse-filter": true,
  "search": "",
  "showTags": true,
  "showAttachments": false,
  "hideUnresolved": true,
  "showOrphans": true,
  "collapse-color-groups": true,
  "colorGroups": [
    {
      "query": "neuro",
      "color": {
        "a": 1,
        "rgb": 6084196
      }
    },
    {
      "query": "gyn",
      "color": {
        "a": 1,
        "rgb": 14048425
      }
    },
    {
      "query": "hno",
      "color": {
        "a": 1,
        "rgb": 14071388
      }
    },
    {
      "query": "auge",
      "color": {
        "a": 1,
        "rgb": 14048348
      }
    },
    {
      "query": "notfall",
      "color": {
        "a": 1,
        "rgb": 6063574
      }
    },
    {
      "query": "kinder",
      "color": {
        "a": 1,
        "rgb": 13555292
      }
    },
    {
      "query": "psych",
      "color": {
        "a": 1,
        "rgb": 6084286
      }
    }
  ],
  "collapse-display": true,
  "showArrow": false,
  "textFadeMultiplier": 0,
  "nodeSizeMultiplier": 1,
  "lineSizeMultiplier": 1,
  "collapse-forces": true,
  "centerStrength": 0.518713248970312,
  "repelStrength": 10,
  "linkStrength": 1,
  "linkDistance": 250,
  "scale": 0.2207024318948362,
  "close": false
}